<svg width="120" height="240" version="1.1" xmlns="http://www.w3.org/2000/svg" attr-nohide="true">
    <defs>
    <linearGradient id="GradientFirst" x1="0" x2="1" y1="0" y2="0">
        <stop offset="0%" stop-color="#FF4B4B"/>
        <stop offset="31.61%" stop-color="#1D89FF"/>
        <stop offset="59.51%" stop-color="#FF4B4B"/>
        <stop offset="59.51%" stop-color="#FF4B4B"/>
        <stop offset="82.95%" stop-color="#0B7BF6"/>
        <stop offset="100%" stop-color="#1D89FF"/>
    </linearGradient>
    </defs>
</svg>
