<svg xmlns="http://www.w3.org/2000/svg" viewBox="0 0 595.3 841.9" enable-background="new 0 0 595.3 841.9" width="26"
     height="26">
    <path d="M453.8 360.2l-92.1 6L234 517.7l-86.2-86.1L5.2 514.7v118.9h585.3V268.1z" opacity=".3"></path>
    <path d="M234 508.8c-156 222.067-78 111.033 0 0zm309-276.3l-71.3 95.1h-101L236.9 488l-92.1-112.9-38.6 41.6-101 98.1 41.6 41.6 95.1-95.1L234 574.2 397.4 387h104l89.1-118.9z"></path>
</svg>
