<svg xmlns="http://www.w3.org/2000/svg" viewBox="0 0 48 48">
    <g fill="none">
        <circle cx="24" cy="24" stroke-linecap="round" r="22" stroke-width="1" stroke-dasharray="16 7"></circle>
        <circle cx="24" cy="24" stroke-linecap="round" r="22" stroke-width="1" stroke-dasharray="0 3.853"></circle>
    </g>
</svg>