<svg width="17" height="17" viewBox="0 0 17 17" version="1.1" xmlns="http://www.w3.org/2000/svg" xmlns:xlink="http://www.w3.org/1999/xlink">
<g transform="translate(-377 -2998)">
<g>
<g>
<g>
<use xlink:href="#help_path0_fill" transform="translate(377 2998)" fill="#95B4FA"/>
</g>
</g>
<g id="?">
<use xlink:href="#help_path1_fill" transform="translate(382.308 3001.91)" fill="#FFFFFF"/>
</g>
</g>
</g>
<defs>
<path id="help_path0_fill" d="M 0 8.5C 0 3.80558 3.80558 0 8.5 0C 13.1944 0 17 3.80558 17 8.5C 17 13.1944 13.1944 17 8.5 17C 3.80558 17 0 13.1944 0 8.5Z"/>
<path id="help_path1_fill" d="M 2.06445 7.03418C 2.06445 6.39616 2.14193 5.88802 2.29688 5.50977C 2.45182 5.13151 2.73438 4.76009 3.14453 4.39551C 3.55924 4.02637 3.83496 3.72786 3.97168 3.5C 4.1084 3.26758 4.17676 3.02376 4.17676 2.76855C 4.17676 1.99837 3.82129 1.61328 3.11035 1.61328C 2.77311 1.61328 2.50195 1.7181 2.29688 1.92773C 2.09635 2.13281 1.99154 2.41764 1.98242 2.78223L 0 2.78223C 0.00911458 1.91178 0.289388 1.23047 0.84082 0.738281C 1.39681 0.246094 2.15332 0 3.11035 0C 4.0765 0 4.82617 0.234701 5.35938 0.704102C 5.89258 1.16895 6.15918 1.82747 6.15918 2.67969C 6.15918 3.06706 6.07259 3.43392 5.89941 3.78027C 5.72624 4.12207 5.42318 4.5026 4.99023 4.92188L 4.43652 5.44824C 4.09017 5.78092 3.89193 6.17057 3.8418 6.61719L 3.81445 7.03418L 2.06445 7.03418ZM 1.86621 9.13281C 1.86621 8.82747 1.96875 8.57682 2.17383 8.38086C 2.38346 8.18034 2.65007 8.08008 2.97363 8.08008C 3.2972 8.08008 3.56152 8.18034 3.7666 8.38086C 3.97624 8.57682 4.08105 8.82747 4.08105 9.13281C 4.08105 9.43359 3.97852 9.68197 3.77344 9.87793C 3.57292 10.0739 3.30632 10.1719 2.97363 10.1719C 2.64095 10.1719 2.37207 10.0739 2.16699 9.87793C 1.96647 9.68197 1.86621 9.43359 1.86621 9.13281Z"/>
</defs>
</svg>
