<svg viewBox="0 0 40 40" xmlns="http://www.w3.org/2000/svg" xmlns:xlink="http://www.w3.org/1999/xlink">
    <defs>
        <path d="M37.45 7.614c-.822.368-1.677.658-2.553.868a8.039 8.039 0 0 0 2.102-3.375c.117-.369-.28-.688-.611-.49a14.67 14.67 0 0 1-3.905 1.626 1.03 1.03 0 0 1-.928-.233A7.947 7.947 0 0 0 26.273 4c-.843 0-1.694.132-2.53.394a7.776 7.776 0 0 0-5.214 5.62 8.66 8.66 0 0 0-.189 2.965.295.295 0 0 1-.32.325c-5.668-.53-10.78-3.284-14.392-7.752a.416.416 0 0 0-.684.054A8.097 8.097 0 0 0 1.86 9.654c0 2.183.87 4.24 2.38 5.74a7.12 7.12 0 0 1-1.82-.712.417.417 0 0 0-.62.363 8.067 8.067 0 0 0 4.663 7.428 7.09 7.09 0 0 1-1.516-.128.42.42 0 0 0-.476.542c.916 2.883 3.377 5.007 6.322 5.49a14.65 14.65 0 0 1-8.253 2.527l-.924-.001a.612.612 0 0 0-.598.465.64.64 0 0 0 .303.705 21.779 21.779 0 0 0 11.014 2.994c3.385 0 6.551-.677 9.411-2.013a20.799 20.799 0 0 0 6.887-5.203 22.852 22.852 0 0 0 4.216-7.121c.938-2.526 1.433-5.221 1.433-7.794v-.123c0-.413.186-.801.509-1.066a15.868 15.868 0 0 0 3.175-3.514c.232-.35-.134-.79-.516-.619z"
              id="twit_4.211363357097181a"/>
        <mask id="twit_4.211363357097181b" x="0" y="0" width="37.04" height="31.067" fill="#fff">
            <use xlink:href="#twit_4.211363357097181a"/>
        </mask>
    </defs>
    <use mask="url(#twit_4.211363357097181b)" xlink:href="#twit_4.211363357097181a" stroke="#D2D0D3" stroke-width="2"
         fill="none" fill-rule="evenodd" opacity=".5"/>
</svg>